…
# --- switch back to sequential processing ----------
plan(sequential)

This run took 14 minutes on my ancient desktop.

In my methods posts, I describedmy functions for extracting the simulations into a data frame. Here, I use bayes_to_df().

library(MyPackage)

# --- read the simulations --------------------------------
bayes_to_df(bugsRunDF$sims) %>%
  print() -> simDF

## # A tibble: 3,000 x 61
##    chain  iter        a0      a_1     a_2     a_3    a_4     a_5     a_6    a_7
##    <fct> <int>     <dbl>    <dbl>   <dbl>   <dbl>  <dbl>   <dbl>   <dbl>  <dbl>
##  1 1         1 -0.00482   0.00389 0.00294 -0.0841 0.0289 -0.199  -0.104  0.136 
##  2 1         2 -0.00403  -0.00963 0.0134  -0.0857 0.0348 -0.285  -0.137  0.164 
##  3 1         3  0.00133   0.0103  0.0172  -0.0785 0.0288 -0.227  -0.158  0.160 
##  4 1         4  0.000331 -0.00897 0.0146  -0.0848 0.0345 -0.173  -0.0926 0.119 
##  5 1         5 -0.00206  -0.00268 0.00999 -0.0790 0.0269 -0.166  -0.190  0.139 
##  6 1         6 -0.00827  -0.00548 0.0108  -0.0800 0.0326 -0.164  -0.113  0.142 
##  7 1         7 -0.00492  -0.00782 0.0118  -0.0802 0.0276 -0.175  -0.0979 0.155 
##  8 1         8  0.00176  -0.00975 0.0108  -0.0872 0.0297 -0.0777 -0.120  0.105 
##  9 1         9 -0.00184  -0.00463 0.0127  -0.0784 0.0361 -0.124  -0.0634 0.0779
## 10 1        10 -0.00173  -0.00670 0.0112  -0.0979 0.0366 -0.145  -0.116  0.129 
## # ... with 2,990 more rows, and 51 more variables: a_8 <dbl>, a_9 <dbl>,
## #   a_10 <dbl>, a_11 <dbl>, a_12 <dbl>, b_1 <dbl>, b_2 <dbl>, b_3 <dbl>,
## #   b_4 <dbl>, b_5 <dbl>, b_6 <dbl>, b_7 <dbl>, b_8 <dbl>, b_9 <dbl>,
## #   b_10 <dbl>, b_11 <dbl>, b_12 <dbl>, b_13 <dbl>, b_14 <dbl>, b_15 <dbl>,
## #   b_16 <dbl>, b_17 <dbl>, b_18 <dbl>, b_19 <dbl>, b_20 <dbl>, b_21 <dbl>,
## #   b_22 <dbl>, b_23 <dbl>, b_24 <dbl>, c_1 <dbl>, c_2 <dbl>, c_3 <dbl>,
## #   c_4 <dbl>, c_5 <dbl>, c_6 <dbl>, c_7 <dbl>, c_8 <dbl>, c_9 <dbl>, ...
…
# --- extract and combine --------------------------------------
simDF <- NULL
for( i in 1:3 ) {
  rf       <- file.path( home,
                         paste("data/dataStore/finalSplineP0", i, ".rds",sep=""))
  simDF <- bind_rows( simDF,
                      bugs_to_df( readRDS(rf)) %>% mutate( chain = i) )
}
# --- convert chain into a factor -------------------------------
simDF %>%
  mutate( chain = factor(chain)) -> simDF
# --- show the tibble -------------------------------------------
print(simDF)

## # A tibble: 15,000 x 106
##    chain  iter        a0      a_1     a_2     a_3    a_4      a_5     a_6    a_7
##    <fct> <int>     <dbl>    <dbl>   <dbl>   <dbl>  <dbl>    <dbl>   <dbl>  <dbl>
##  1 1         1  0.00200   5.19e-3 0.00642 -0.0794 0.0300 -0.121   -0.0936 0.082 
##  2 1         2 -0.00907  -1.99e-3 0.0167  -0.0798 0.0392 -0.101   -0.144  0.0934
##  3 1         3  0.00177  -1.39e-2 0.00988 -0.0698 0.0339 -0.139   -0.0788 0.117 
##  4 1         4  0.00944  -6.98e-3 0.0114  -0.0805 0.0201 -0.0595  -0.0783 0.0499
##  5 1         5  0.00489  -5.09e-4 0.0160  -0.0882 0.0359 -0.209   -0.161  0.161 
##  6 1         6  0.000593 -6.28e-3 0.00603 -0.0764 0.0348 -0.0818  -0.103  0.0807
##  7 1         7  0.00187  -6.25e-3 0.0185  -0.0932 0.0219 -0.166   -0.164  0.146 
##  8 1         8 -0.00762  -1.57e-2 0.00259 -0.0774 0.0313 -0.00532 -0.183  0.104 
##  9 1         9  0.0113   -1.05e-3 0.0162  -0.0797 0.0299 -0.157   -0.122  0.131 
## 10 1        10 -0.00707   1.46e-4 0.00842 -0.0839 0.0295 -0.0702  -0.135  0.0751
## # ... with 14,990 more rows, and 96 more variables: a_8 <dbl>, a_9 <dbl>,
## #   a_10 <dbl>, a_11 <dbl>, a_12 <dbl>, b_1 <dbl>, b_2 <dbl>, b_3 <dbl>,
## #   b_4 <dbl>, b_5 <dbl>, b_6 <dbl>, b_7 <dbl>, b_8 <dbl>, b_9 <dbl>,
## #   b_10 <dbl>, b_11 <dbl>, b_12 <dbl>, b_13 <dbl>, b_14 <dbl>, b_15 <dbl>,
## #   b_16 <dbl>, b_17 <dbl>, b_18 <dbl>, b_19 <dbl>, b_20 <dbl>, b_21 <dbl>,
## #   b_22 <dbl>, b_23 <dbl>, b_24 <dbl>, b_25 <dbl>, b_26 <dbl>, b_27 <dbl>,
## #   b_28 <dbl>, b_29 <dbl>, b_30 <dbl>, b_31 <dbl>, b_32 <dbl>, b_33 <dbl>, ...
…
