Methods: R Software for Bayesian Analysis | Modelling with R
…
However, I find it helpful to have the simulations in a data frame with one column for each parameter and one row for each iteration. My function, bugs_to_df(), extracts the simulations and adds columns denoting the chain number and iteration number. The code for this function is given in the appendix. I have placed bugs_to_df() in a package called MyPackage.

library(MyPackage)

# --- results into a tibble ----------------------------------------
simDF <- bugs_to_df(results)

# --- show the tibble ----------------------------------------------
print(simDF)

## # A tibble: 1,000 x 18
##    chain  iter    b0     b1  b2_2  b2_3  b2_4  b2_5  b2_6  b2_7  b2_8  b2_9
##    <fct> <int> <dbl>  <dbl> <dbl> <dbl> <dbl> <dbl> <dbl> <dbl> <dbl> <dbl>
##  1 1         1 -1.55 0.0142  1.38  2.42  3.11  3.68  4.04  4.23  4.30  4.28
##  2 1         2 -1.42 0.0141  1.29  2.28  2.96  3.53  3.90  4.09  4.17  4.14
##  3 1         3 -1.56 0.0145  1.39  2.40  3.13  3.69  4.05  4.24  4.32  4.29
##  4 1         4 -1.56 0.0144  1.33  2.41  3.12  3.68  4.05  4.25  4.32  4.29
##  5 1         5 -1.51 0.0136  1.34  2.37  3.08  3.64  4.01  4.20  4.28  4.25
##  6 1         6 -1.56 0.0143  1.40  2.42  3.12  3.67  4.06  4.25  4.31  4.29
##  7 1         7 -1.56 0.0140  1.38  2.40  3.16  3.68  4.06  4.23  4.33  4.30
##  8 1         8 -1.41 0.0144  1.23  2.25  2.98  3.52  3.90  4.09  4.17  4.14
##  9 1         9 -1.54 0.0136  1.34  2.40  3.12  3.68  4.05  4.22  4.29  4.28
## 10 1        10 -1.57 0.0133  1.38  2.40  3.16  3.70  4.08  4.27  4.33  4.29
## # ... with 990 more rows, and 6 more variables: b2_10 <dbl>, b2_11 <dbl>,
## #   b2_12 <dbl>, b2_13 <dbl>, b2_14 <dbl>, b3 <dbl>
…
# --- switch back to sequential processing ----------
plan(sequential)

Three chains in 7.75s, more or less the same as it took to run one chain.

Now I can read the results and bind them into a single data frame. Since, running multiple chains is the norm, I have written a function bayes_to_df() that takes a vector as rds file names and returns a data frame of the simulations that they contain. The code for the function is in the appendix.

# --- read the simulations --------------------------------
bayes_to_df(bugsRunDF$sims) %>%
  print() -> simDF

## # A tibble: 3,000 x 19
##    chain  iter    b0     b1  b2_2  b2_3  b2_4  b2_5  b2_6  b2_7  b2_8  b2_9
##    <fct> <int> <dbl>  <dbl> <dbl> <dbl> <dbl> <dbl> <dbl> <dbl> <dbl> <dbl>
##  1 1         1 -1.55 0.0148  1.41  2.39  3.10  3.67  4.05  4.23  4.30  4.29
##  2 1         2 -1.54 0.0144  1.35  2.38  3.11  3.68  4.03  4.21  4.28  4.27
##  3 1         3 -1.31 0.0142  1.12  2.15  2.86  3.44  3.80  3.99  4.08  4.06
##  4 1         4 -1.32 0.0142  1.11  2.18  2.88  3.45  3.81  3.99  4.07  4.05
##  5 1         5 -1.52 0.0146  1.36  2.38  3.10  3.66  4.01  4.20  4.29  4.25
##  6 1         6 -1.35 0.0136  1.15  2.18  2.93  3.47  3.84  4.04  4.12  4.09
##  7 1         7 -1.28 0.0134  1.08  2.13  2.86  3.42  3.79  3.97  4.06  4.04
##  8 1         8 -1.31 0.0144  1.10  2.16  2.88  3.42  3.80  4.00  4.07  4.04
##  9 1         9 -1.40 0.0149  1.22  2.24  2.97  3.51  3.88  4.07  4.13  4.12
## 10 1        10 -1.40 0.0144  1.22  2.26  2.95  3.51  3.88  4.08  4.15  4.14
## # ... with 2,990 more rows, and 7 more variables: b2_10 <dbl>, b2_11 <dbl>,
## #   b2_12 <dbl>, b2_13 <dbl>, b2_14 <dbl>, b3 <dbl>, deviance <dbl>
…
##  num [1:1000, 1:17] 0.422 0.422 0.422 0.422 0.422 ...
##  - attr(*, "dimnames")=List of 2
##   ..$ : NULL
##   ..$ : chr [1:17] "b0" "b1" "b2[1]" "b2[2]" ...

My function for placing these results into a tibble is called nimble_to_df() and is given in the Appendix. Alternatively, the function bayes_to_df() will return a data frame from the name of an rds file(s).

# --- read the results for the example ------------------------
simDF <- nimble_to_df(results)

# --- show the results ----------------------------------------
print(simDF)

## # A tibble: 1,000 x 19
##    chain  iter    b0      b1  b2_1   b2_2  b2_3  b2_4  b2_5  b2_6  b2_7  b2_8
##    <fct> <int> <dbl>   <dbl> <dbl>  <dbl> <dbl> <dbl> <dbl> <dbl> <dbl> <dbl>
##  1 1         1 0.422 0.00141     0 -0.424 0.539  1.30  1.86  2.21  2.40  2.47
##  2 1         2 0.422 0.00141     0 -0.424 0.606  1.30  1.86  2.21  2.40  2.47
##  3 1         3 0.422 0.00141     0 -0.424 0.606  1.30  1.86  2.23  2.40  2.47
##  4 1         4 0.422 0.00141     0 -0.464 0.606  1.30  1.86  2.23  2.40  2.47
##  5 1         5 0.422 0.00141     0 -0.464 0.606  1.30  1.86  2.23  2.40  2.46
##  6 1         6 0.422 0.00141     0 -0.439 0.606  1.30  1.86  2.23  2.40  2.46
##  7 1         7 0.422 0.00141     0 -0.439 0.606  1.30  1.86  2.23  2.40  2.46
##  8 1         8 0.422 0.00141     0 -0.508 0.608  1.30  1.86  2.23  2.42  2.46
##  9 1         9 0.422 0.00141     0 -0.465 0.608  1.30  1.86  2.23  2.41  2.46
## 10 1        10 0.422 0.00141     0 -0.478 0.608  1.30  1.86  2.23  2.41  2.46
## # ... with 990 more rows, and 7 more variables: b2_9 <dbl>, b2_10 <dbl>,
## #   b2_11 <dbl>, b2_12 <dbl>, b2_13 <dbl>, b2_14 <dbl>, b3 <dbl>
…
# --- extract the result to a tibble -----------------------
simDF <- stan_to_df(results)
# --- show the results -------------------------------------
print(simDF)

## # A tibble: 3,000 x 19
##    chain  iter     b0      b1  b2_1  b2_2  b2_3    b2_4  b2_5   b2_6  b2_7
##    <fct> <int>  <dbl>   <dbl> <dbl> <dbl> <dbl>   <dbl> <dbl>  <dbl> <dbl>
##  1 1         1 -0.872 -0.123   1.02  1.09 -1.43 -0.0502 -1.79 -0.862 0.711
##  2 1         2 -0.872 -0.123   1.02  1.09 -1.43 -0.0502 -1.79 -0.862 0.711
##  3 1         3 -0.872 -0.123   1.02  1.09 -1.43 -0.0502 -1.79 -0.862 0.711
##  4 1         4 -0.872 -0.123   1.02  1.09 -1.43 -0.0502 -1.79 -0.862 0.711
##  5 1         5 -0.872 -0.123   1.02  1.09 -1.43 -0.0502 -1.79 -0.862 0.711
##  6 1         6 -0.872 -0.123   1.02  1.09 -1.43 -0.0502 -1.79 -0.862 0.711
##  7 1         7 -0.870 -0.101   1.02  1.09 -1.43 -0.0500 -1.79 -0.862 0.711
##  8 1         8 -0.869 -0.0885  1.02  1.09 -1.43 -0.0499 -1.79 -0.861 0.711
##  9 1         9 -0.865 -0.0524  1.02  1.09 -1.43 -0.0501 -1.79 -0.861 0.712
## 10 1        10 -0.854  0.0626  1.02  1.09 -1.43 -0.0493 -1.79 -0.859 0.714
## # ... with 2,990 more rows, and 8 more variables: b2_8 <dbl>, b2_9 <dbl>,
## #   b2_10 <dbl>, b2_11 <dbl>, b2_12 <dbl>, b2_13 <dbl>, b3 <dbl>, lp__ <dbl>
…
# --- convert to a tibble -------------------------------------
simDF <- greta_to_df(results)
# --- look at the tibble --------------------------------------
print(simDF)

## # A tibble: 3,000 x 18
##    chain  iter  b_1_1  b_2_1 b_3_1 b_4_1 b_5_1 b_6_1 b_7_1 b_8_1 b_9_1 b_10_1
##    <fct> <int>  <dbl>  <dbl> <dbl> <dbl> <dbl> <dbl> <dbl> <dbl> <dbl>  <dbl>
##  1 1         1 -0.527 0.0139 0.292  1.34  2.09  2.65  3.02  3.20  3.29   3.26
##  2 1         2 -0.538 0.0142 0.335  1.34  2.10  2.66  3.04  3.21  3.30   3.27
##  3 1         3 -0.538 0.0141 0.339  1.33  2.10  2.68  3.04  3.22  3.30   3.27
##  4 1         4 -0.535 0.0143 0.330  1.34  2.11  2.65  3.04  3.22  3.30   3.27
##  5 1         5 -0.546 0.0143 0.339  1.35  2.11  2.67  3.05  3.22  3.31   3.28
##  6 1         6 -0.542 0.0141 0.318  1.35  2.10  2.65  3.05  3.22  3.31   3.27
##  7 1         7 -0.526 0.0139 0.324  1.34  2.10  2.65  3.03  3.20  3.29   3.25
##  8 1         8 -0.541 0.0141 0.270  1.34  2.09  2.67  3.03  3.21  3.29   3.26
##  9 1         9 -0.533 0.0142 0.281  1.35  2.09  2.66  3.03  3.21  3.29   3.26
## 10 1        10 -0.545 0.0147 0.313  1.34  2.09  2.64  3.03  3.20  3.29   3.27
## # ... with 2,990 more rows, and 6 more variables: b_11_1 <dbl>, b_12_1 <dbl>,
## #   b_13_1 <dbl>, b_14_1 <dbl>, b_15_1 <dbl>, b_16_1 <dbl>
…
