Methods: Introduction to mlr3 | Modelling with R
…
library(mlr3verse)
library(tidyverse)
library(lubridate)

home <- "C:/Projects/kaggle/sliced/s01-e10"

# --- read data and select variable --------------------------
readRDS( file.path(home, "data/rData/train.rds")) %>%
        mutate( outcome_type = factor(outcome_type),
                animal_type  = factor(animal_type),
                date         = as.numeric(date(datetime)) ) %>%
        select( outcome_type, animal_type, date) %>%
        print()  -> rawDF

## # A tibble: 54,408 x 3
##    outcome_type animal_type  date
##    <fct>        <fct>       <dbl>
##  1 adoption     Cat         17018
##  2 no outcome   Other       17464
##  3 transfer     Dog         16137
##  4 transfer     Cat         16408
##  5 transfer     Dog         16816
##  6 adoption     Dog         16318
##  7 adoption     Cat         16214
##  8 adoption     Dog         16490
##  9 adoption     Dog         17150
## 10 adoption     Dog         16452
## # ... with 54,398 more rows
…
