Sliced Episode 4: Rain Tomorrow | Modelling with R
…
14,653 weather records from the same 49 locations covering the period 8-11-2007 to 25-6-2017; about 8% of all possible records for that period.

The periods covered by the training and test data are very similar, so the obvious question is whether or not the next day for the test data is in the training data. Let’s check. An inner join gives the matches present in both data frames.

# --- Is the answer given in the training data? --------------------
testRawDF %>%
  # --- the day for which prediction is required -------------------
  mutate( date = date + 1 ) %>%
  select( date, location ) %>%
  # --- merge with the training data -------------------------------
  inner_join( trainRawDF %>% 
                select(date, location, rain_today),
              by=c("date", "location"))

## # A tibble: 3,510 x 3
##    date       location      rain_today
##    <date>     <chr>              <dbl>
##  1 2017-06-19 Newcastle              1
##  2 2009-06-27 SydneyAirport          0
##  3 2012-10-27 BadgerysCreek          0
##  4 2010-08-10 Albany                 0
##  5 2016-09-20 Woomera                1
##  6 2015-10-17 Woomera                0
##  7 2011-11-22 Cobar                  1
##  8 2016-05-08 Townsville             0
##  9 2011-12-24 Watsonia               0
## 10 2016-12-27 Cobar                  0
## # ... with 3,500 more rows
…
the weather today

My first model will be based on long-term averages. For each location-month combination I will use the percentage of rainy days as the estimate of the probability of rain tomorrow.

trainRawDF %>%
  # --- drop days with missing rain_today ----------------
  filter( !is.na(rain_today)) %>%
  # --- for each location/month combination --------------
  mutate( mth = month(date)) %>%
  group_by(location, mth) %>%
  # --- proportion of rain days --------------------------
  summarise( probRain = mean(rain_today), .groups="drop") %>%
  print() -> probRainDF

## # A tibble: 588 x 3
##    location   mth probRain
##    <chr>    <dbl>    <dbl>
##  1 Adelaide     1   0.0294
##  2 Adelaide     2   0.0526
##  3 Adelaide     3   0.123 
##  4 Adelaide     4   0.193 
##  5 Adelaide     5   0.327 
##  6 Adelaide     6   0.373 
##  7 Adelaide     7   0.415 
##  8 Adelaide     8   0.349 
##  9 Adelaide     9   0.222 
## 10 Adelaide    10   0.254 
## # ... with 578 more rows
…
  summarise( n       = n(),
             rainDay = sum(rain_today),
             prop    = rainDay/n, 
             .groups="drop") %>%
  # --- annual by location -----------------
  group_by( location) %>%
  mutate( nAnnual    = sum(n),
          rainAnnual = sum(rainDay),
          propAnnual = rainAnnual / nAnnual) %>%
  # --- combined estimates ----------------
  mutate( bayes = (rainDay + propAnnual * 5) / (n + 5) ) %>%
  select( location, mth, prop, bayes) %>%
  print() -> probRainDF

## # A tibble: 588 x 4
## # Groups:   location [49]
##    location   mth   prop  bayes
##    <chr>    <dbl>  <dbl>  <dbl>
##  1 Adelaide     1 0.0294 0.0424
##  2 Adelaide     2 0.0526 0.0660
##  3 Adelaide     3 0.123  0.130 
##  4 Adelaide     4 0.193  0.195 
##  5 Adelaide     5 0.327  0.318 
##  6 Adelaide     6 0.373  0.359 
##  7 Adelaide     7 0.415  0.401 
##  8 Adelaide     8 0.349  0.340 
##  9 Adelaide     9 0.222  0.222 
## 10 Adelaide    10 0.254  0.251 
## # ... with 578 more rows
…
Now we can use the map functions from purrr to fit the same model to every location and save the results in list columns.

# --- separate models for each location -------------------------
tibble( place = unique(trainDF$location) ) %>%
  mutate( model   = map(place, modelfit, thisDF=estimateDF)) %>%
  mutate( n       = map_df(place, ndays, thisDF=estimateDF)) %>%
  mutate( logloss = map2_dbl(place, model, outsample,
                             thisDF=validateDF)) %>%
  print()  -> modDF

## # A tibble: 49 x 4
##    place         model    n$n    $r  $pct logloss
##    <fct>         <list> <int> <int> <dbl>   <dbl>
##  1 BadgerysCreek <glm>    475    92  19.4   0.334
##  2 Sale          <glm>    536   123  22.9   0.319
##  3 Nhil          <glm>    263    40  15.2   0.323
##  4 Townsville    <glm>    488    76  15.6   0.302
##  5 Uluru         <glm>    254    23   9.1   0.200
##  6 Nuriootpa     <glm>    518    97  18.7   0.310
##  7 Albany        <glm>    524   140  26.7   0.416
##  8 Watsonia      <glm>    490   104  21.2   0.365
##  9 Perth         <glm>    534   116  21.7   0.327
## 10 Tuggeranong   <glm>    467    87  18.6   0.327
## # ... with 39 more rows
…
## # A tibble: 1 x 1
##     mll
##   <dbl>
## 1 0.352

The average logloss of 0.352 would only just get us into the top ten on the leaderboard, where the leading model scored 0.332.

Here are the locations that are poorly predicted.

modDF %>%
  arrange( desc(logloss))

## # A tibble: 49 x 4
##    place         model    n$n    $r  $pct logloss
##    <fct>         <list> <int> <int> <dbl>   <dbl>
##  1 NorfolkIsland <glm>    527   173  32.8   0.524
##  2 SydneyAirport <glm>    497   123  24.7   0.484
##  3 CoffsHarbour  <glm>    454   135  29.7   0.478
##  4 Portland      <glm>    510   184  36.1   0.470
##  5 Williamtown   <glm>    454   106  23.3   0.464
##  6 Cairns        <glm>    529   177  33.5   0.460
##  7 Launceston    <glm>    499   118  23.6   0.458
##  8 Melbourne     <glm>    381    90  23.6   0.456
##  9 NorahHead     <glm>    490   137  28     0.439
## 10 Newcastle     <glm>    518   127  24.5   0.434
## # ... with 39 more rows
…
# --- test data for imputation 1 ---------------------------
complete(imp2, action=1) %>%
  slice( 34192:48844 ) %>%
  as_tibble() -> testDF

# --- predicted probabilities ------------------------------
tibble( place = unique(trainDF$location) ) %>%
  mutate( model = map(place, modelfit, thisDF=trainDF)) %>%
  mutate( p     = map2(place, model, predict_rain, thisDF=testDF)) %>%
  select(p) %>%
  unnest(p)

## # A tibble: 14,653 x 2
##       id rain_tomorrow
##    <dbl>         <dbl>
##  1  2036       0.205  
##  2 41258       0.00598
##  3 37733       0.0585 
##  4 41920       0.0866 
##  5 15188       0.111  
##  6  7118       0.838  
##  7 22425       0.0879 
##  8 26516       0.0517 
##  9 40344       0.867  
## 10 10035       0.0286 
## # ... with 14,643 more rows
…
Let’s combine the saved predictions and see how they vary.

# --- read and combine the predictions --------------------
bind_rows(
   readRDS( file.path(home, "data/rData/pred1.rds")),
   readRDS( file.path(home, "data/rData/pred2.rds")),
   readRDS( file.path(home, "data/rData/pred3.rds")),
   readRDS( file.path(home, "data/rData/pred4.rds")),
   readRDS( file.path(home, "data/rData/pred5.rds")),
          .id="imputation") -> predictionDF
# --- inspect the predictions  ----------------------------
predictionDF %>%
  pivot_wider(values_from=rain_tomorrow, names_from=imputation)

## # A tibble: 14,653 x 6
##       id     `1`     `2`     `3`     `4`     `5`
##    <dbl>   <dbl>   <dbl>   <dbl>   <dbl>   <dbl>
##  1  2036 0.205   0.205   0.194   0.211   0.202  
##  2 41258 0.00598 0.00590 0.00580 0.00599 0.00589
##  3 37733 0.0585  0.0541  0.0577  0.0561  0.0552 
##  4 41920 0.0866  0.0866  0.0856  0.0869  0.0861 
##  5 15188 0.111   0.109   0.112   0.109   0.109  
##  6  7118 0.838   0.842   0.838   0.841   0.838  
##  7 22425 0.0879  0.0885  0.0848  0.0897  0.0880 
##  8 26516 0.0517  0.0528  0.0506  0.0528  0.0526 
##  9 40344 0.867   0.865   0.866   0.866   0.864  
## 10 10035 0.0286  0.0275  0.0281  0.0281  0.0280 
## # ... with 14,643 more rows
…
The actual submission will be based on the average prediction. There is an argument for averaging on a logit scale, but that seems over the top.

Here is the average prediction across imputations.

# --- create submission from the average prediction -------------------
predictionDF %>%
  group_by(id) %>%
  summarise( rain_tomorrow = mean(rain_tomorrow), .groups="drop") %>%
  select( id, rain_tomorrow) %>%
  print() %>%
  write.csv( file.path(home, "temp/submission2.csv"),
             row.names=FALSE)

## # A tibble: 14,653 x 2
##       id rain_tomorrow
##    <dbl>         <dbl>
##  1     1       0.344  
##  2     2       0.253  
##  3     3       0.134  
##  4     4       0.975  
##  5    11       0.303  
##  6    12       0.368  
##  7    16       0.0785 
##  8    21       0.00777
##  9    22       0.100  
## 10    24       0.00275
## # ... with 14,643 more rows
…
