Sliced Episode 6: Ranking Games on Twitch | Modelling with R
…
testRawDF <- readRDS(file.path(home, "data/rData/test.rds"))

# --- create a submission ----------------------------------
testRawDF %>%
  mutate( yhat = Hours_Streamed * Avg_viewer_ratio) %>%
  # --- rank large to small -----------------
  mutate( Rank = rank(-yhat) ) %>%
  # --- format submission -----------------
  select( Game, Rank) %>%
  arrange( Rank) %>% 
  print() %>%
  write.csv( file.path( home, "temp/submission1.csv"),
                        row.names=FALSE)

## # A tibble: 200 x 2
##    Game                              Rank
##    <chr>                            <dbl>
##  1 Just Chatting                        1
##  2 Grand Theft Auto V                   2
##  3 League of Legends                    3
##  4 VALORANT                             4
##  5 Call of Duty: Warzone                5
##  6 Fortnite                             6
##  7 Minecraft                            7
##  8 Counter-Strike: Global Offensive     8
##  9 Apex Legends                         9
## 10 Resident Evil Village               10
## # ... with 190 more rows
…
