…
It is interesting to ask which features are used most often and to help us address that question, pbart() returns an object called varcount that gives the number of times each feature is used to split a tree. Here are the most frequently used features.

## # A tibble: 4,998 × 2
##    feature  freq
##    <chr>   <dbl>
##  1 p145    1.64 
##  2 p122    1.58 
##  3 p452    1.01 
##  4 p1936   1.01 
##  5 p3163   1.00 
##  6 p402    0.957
##  7 p101    0.794
##  8 p533    0.775
##  9 p88     0.703
## 10 p81     0.611
## # … with 4,988 more rows

Notice that the 145th submission, which I have not used so far, is the most frequent, but it is only used an average of 1.6 times in 50 trees. It looks as though the predictive information is spread fairly evenly over the submissions and that, because of duplication of information, it is not necessary to us them all.

BART offers the option of using a sparsity prior. Instead of giving every feature the same chance of being used each time a tree is constructed or modified, the algorithm is allowed to learn which features are most predictive and to favour those features when it needs to choose a feature. I wanted to strongly encourage sparsity, because weak priors will be swamped by the data, so I set the rho parameter to 200. The default is 5000 equal to the number of features.

The validation log-loss is back to 0.537 and the important features are,

## # A tibble: 4,998 × 2
##    feature   freq
##    <chr>    <dbl>
##  1 p63     27.3  
##  2 p122    17.4  
##  3 p145     8.64 
##  4 p4830    1.23 
##  5 p2322    0.719
##  6 p1839    0.678
##  7 p706     0.268
##  8 p4988    0.253
##  9 p4040    0.181
## 10 p3049    0.165
## # … with 4,988 more rows
…
