…
The results are saved in stan format, but can be extracted by my stan_to_df() function as described in the methods post on Bayesian Software.

library(MyPackage)

readRDS( file.path(home, "data/dataStore/profit_mod1.rds")) %>%
  stan_to_df() %>%
  print() -> sim1DF

## # A tibble: 6,000 × 22
##    chain  iter   a_1   a_2   a_3   a_4   a_5   a_6   a_7   a_8   a_9  a_10  a_11
##    <fct> <int> <dbl> <dbl> <dbl> <dbl> <dbl> <dbl> <dbl> <dbl> <dbl> <dbl> <dbl>
##  1 1         1  1.84  1.54 0.357  1.55 0.678 0.650 -1.42  1.45 0.171  1.77 -1.92
##  2 1         2  1.84  1.54 0.357  1.55 0.678 0.650 -1.42  1.45 0.171  1.77 -1.92
##  3 1         3  1.84  1.54 0.357  1.55 0.678 0.650 -1.42  1.45 0.171  1.77 -1.92
##  4 1         4  1.84  1.54 0.357  1.55 0.678 0.650 -1.42  1.45 0.171  1.77 -1.92
##  5 1         5  1.84  1.54 0.357  1.55 0.678 0.650 -1.42  1.45 0.171  1.77 -1.92
##  6 1         6  1.83  1.54 0.354  1.53 0.679 0.643 -1.42  1.45 0.162  1.75 -1.91
##  7 1         7  1.82  1.53 0.347  1.51 0.683 0.634 -1.42  1.45 0.161  1.73 -1.91
##  8 1         8  1.78  1.52 0.315  1.46 0.683 0.610 -1.44  1.43 0.168  1.68 -1.88
##  9 1         9  1.77  1.53 0.313  1.45 0.689 0.607 -1.44  1.43 0.160  1.68 -1.88
## 10 1        10  1.72  1.51 0.270  1.37 0.677 0.590 -1.41  1.42 0.172  1.60 -1.88
## # … with 5,990 more rows, and 9 more variables: a_12 <dbl>, a_13 <dbl>,
## #   a_14 <dbl>, a_15 <dbl>, a_16 <dbl>, a_17 <dbl>, sigma <dbl>, tau <dbl>,
## #   lp__ <dbl>
…
