…
b0 + 4*b1 + b2_5 + b3 + log(21.8)

The true values of the parameters b0, b1, b2_5, b3 are not known, but we do have 1000 estimates of their values, so we can create 1000 estimates of mu. The predicted number of deaths will be a poisson value with a mean of exp(mu).

# --- seed for reproducibility -------------------------------------
set.seed(9823)
# --- predictions for the selected group ---------------------------
simBugsDF %>%
  mutate( mu = b0 + 4*b1 + b2_5 + b3 + log(21.8),
          pred_mean_deaths = exp(mu),
          pred_deaths = rpois(1000, pred_mean_deaths)) %>%
  select( mu, pred_mean_deaths, pred_deaths) %>%
  print() -> predictionDF

## # A tibble: 1,000 x 3
##          mu pred_mean_deaths pred_deaths
##       <dbl>            <dbl>       <int>
##  1 6.046010         422.4242         440
##  2 6.032970         416.9515         409
##  3 6.049150         423.7527         395
##  4 6.036170         418.2879         390
##  5 6.040970         420.3005         415
##  6 6.025350         413.7864         377
##  7 6.038490         419.2595         441
##  8 6.023290         412.9349         417
##  9 6.060390         428.5425         438
## 10 6.047270         422.9568         434
## # ... with 990 more rows
…
# --- show measures --------------------------------------------------
alcDF %>%
  arrange( desc(abs(r)))

## # A tibble: 560 x 7
##     year age   gender deaths   pop         r     p
##    <dbl> <fct> <chr>   <dbl> <dbl>     <dbl> <dbl>
##  1  2018 70-74 male      471 12.33  9.226007     0
##  2  2020 70-74 male      479 12.33  8.558862     0
##  3  2019 40-44 male      349 21.82 -7.255436     1
##  4  2020 75-79 male      259  9.23  7.169238     0
##  5  2017 75-79 male      248  9.23  6.881285     0
##  6  2020 55-59 female    534 19.62  6.399612     0
##  7  2020 65-69 male      717 14.87  6.373617     0
##  8  2009 40-44 male      563 21.82  5.746027     0
##  9  2019 35-39 male      199 21.72 -5.495433     1
## 10  2015 40-44 male      369 21.82 -5.468915     1
## # ... with 550 more rows
…
