Bayesian Sliced 5: Airbnb Price Prediction | Modelling with R
…
Not perfect but usable. The test RMSE is now about 0.425, better than the default XGBoost model, though that RMSE was based on the test data supplied by sliced.

Here are the average frequencies (per 200 trees) with which the main predictors were used for splitting.

# --- frequ3ncies of use in 200 trees --------------------
apply(bt1$varcount, 2, mean) %>%
  as_tibble() %>%
  mutate( var = colnames(bt1$varcount)) %>%
  rename( freq = value )  %>%
  filter( freq > 1 ) %>%
  arrange( desc(freq) ) %>%
  relocate( var, freq) %>%
  print() 

## # A tibble: 57 × 2
##    var                             freq
##    <chr>                          <dbl>
##  1 longitude                       6.63
##  2 availability_365                5.28
##  3 calculated_host_listings_count  4.43
##  4 room_type                       4.30
##  5 latitude                        3.71
##  6 minimum_nights                  3.38
##  7 X18                             2.95
##  8 N78                             2.81
##  9 reviews_per_month               2.30
## 10 N120                            2.21
## # … with 47 more rows
In chain 1, 57 predictors were used more than once per set of 200 trees.

The results for the other two chains are similar, but the order of importance changes slightly. For example, here is the order for chain 3.

# --- frequencies of use in 200 trees --------------------
apply(bt3$varcount, 2, mean) %>%
  as_tibble() %>%
  mutate( var = colnames(bt1$varcount)) %>%
  rename( freq = value )  %>%
  filter( freq > 1 ) %>%
  arrange( desc(freq) ) %>%
  relocate( var, freq) %>%
  print() 

## # A tibble: 57 × 2
##    var                             freq
##    <chr>                          <dbl>
##  1 room_type                       7.13
##  2 longitude                       6.44
##  3 availability_365                5.20
##  4 calculated_host_listings_count  5.08
##  5 latitude                        4.43
##  6 minimum_nights                  3.78
##  7 N36                             2.68
##  8 N78                             2.33
##  9 reviews_per_month               2.27
## 10 X18                             2.21
## # … with 47 more rows
…
## 200  trees: run length  1000  burnin  10000  thin by  1 
##  Posterior mean sigma     0.408865 
##  Average splits per tree  1.28454 
##  training RMSE            0.3983437 
##  test RMSE                0.4229048

The chain took about 3.5 minutes to run.

The tree depths have increased very slightly and the test RMSE is slightly better. Remember that a default XGBoost model had a RMSE of 0.431 (though that was with the sliced test data).

Here are the frequencies for the top predictors

## # A tibble: 39 × 2
##    var                             freq
##    <chr>                          <dbl>
##  1 calculated_host_listings_count 37.6 
##  2 room_type                      36.2 
##  3 longitude                      21.4 
##  4 availability_365               19.4 
##  5 N78                            16.9 
##  6 latitude                        9.49
##  7 X11                             6.30
##  8 X18                             5.95
##  9 X3                              5.71
## 10 minimum_nights                  5.36
## # … with 29 more rows

Notice that the frequencies have increased dramatically, so that fewer predictors are used.

Finally, here are the selection probabilities that the model learns from its Dirichlet prior. The order is more or less the same as that for the frequencies.

## # A tibble: 21 × 2
##    var                              prob
##    <chr>                           <dbl>
##  1 calculated_host_listings_count 0.135 
##  2 room_type                      0.130 
##  3 longitude                      0.0772
##  4 availability_365               0.0697
##  5 N78                            0.0606
##  6 latitude                       0.0349
##  7 X11                            0.0228
##  8 X18                            0.0212
##  9 X3                             0.0207
## 10 minimum_nights                 0.0197
## # … with 11 more rows
…
