Sliced Episode 9: Baseball home runs | Modelling with R
…
teams <- c("LAA", "STL", "ARI", "NYM", "PHI", "DET", "COL",
           "LAD", "BOS", "TEX", "CIN", "CWS", "KC" , "MIA",
           "MIL", "HOU", "WSH", "NYY", "SF",  "BAL", "SD",
           "PIT", "CLE", "OAK", "TOR", "ATL", "SEA", "MIN",
           "TB",  "CHC")

parkRawDF %>%
  arrange(NAME) %>%
  mutate(home_team = teams)  -> parkDF

parkDF %>%
  select(NAME, home_team) %>%
  print()

## # A tibble: 30 x 2
##    NAME                     home_team
##    <chr>                    <chr>    
##  1 Angel Stadium of Anaheim LAA      
##  2 Busch Stadium III        STL      
##  3 Chase Field              ARI      
##  4 Citi Field               NYM      
##  5 Citizens Bank Park       PHI      
##  6 Comerica Park            DET      
##  7 Coors Field              COL      
##  8 Dodger Stadium           LAD      
##  9 Fenway Park              BOS      
## 10 Globe Life Park          TEX      
## # ... with 20 more rows
…
