…
There are two alternatives, use MCMC for b2 and HMC for the other parameters, or expand the age term as a set of dummy variables. I’ll try the later approach first.

# --- create dummy variables for age -----------------------------
alcDF %>%
  mutate(dummy = paste0("age", as.numeric(age)), 
         value = 1) %>%
  pivot_wider(names_from  = dummy, 
              values_from = value, 
              values_fill = 0) %>%
  ungroup() %>%
  select(-age, -age1) %>%
  print() -> dummyAgeDF

## # A tibble: 560 × 17
##     year gender deaths   pop  age2  age3  age4  age5  age6  age7  age8  age9
##    <dbl> <chr>   <dbl> <dbl> <dbl> <dbl> <dbl> <dbl> <dbl> <dbl> <dbl> <dbl>
##  1  2020 male        4  20.8     0     0     0     0     0     0     0     0
##  2  2020 female      5  23.5     0     0     0     0     0     0     0     0
##  3  2020 male       23  21.1     1     0     0     0     0     0     0     0
##  4  2020 female     23  21.3     1     0     0     0     0     0     0     0
##  5  2020 male      115  21.3     0     1     0     0     0     0     0     0
##  6  2020 female     71  21.5     0     1     0     0     0     0     0     0
##  7  2020 male      272  21.7     0     0     1     0     0     0     0     0
##  8  2020 female    159  22.1     0     0     1     0     0     0     0     0
##  9  2020 male      457  21.8     0     0     0     1     0     0     0     0
## 10  2020 female    232  22.2     0     0     0     1     0     0     0     0
## # … with 550 more rows, and 5 more variables: age10 <dbl>, age11 <dbl>,
## #   age12 <dbl>, age13 <dbl>, age14 <dbl>
…
The structure returned by runMCMC() is just a matrix, but a little wrangling is needed to get it into a more usable format. My function nimble_to_df() does the job. The code for this function is in the previous post.

library(MyPackage)

# --- read the result -----------------------------------------
results <- readRDS(file.path( home, "data/dataStore/alcNimbleHMC01.rds"))

# --- read the results for the example ------------------------
simDF <- nimble_to_df(results)

# --- show the results ----------------------------------------
print(simDF)

## # A tibble: 1,000 × 19
##    chain  iter    b0     b1  b2_1  b2_2  b2_3  b2_4  b2_5  b2_6  b2_7  b2_8
##    <fct> <int> <dbl>  <dbl> <dbl> <dbl> <dbl> <dbl> <dbl> <dbl> <dbl> <dbl>
##  1 1         1 -1.57 0.0147     0  1.37  2.39  3.14  3.70  4.06  4.24  4.33
##  2 1         2 -1.57 0.0147     0  1.37  2.39  3.14  3.70  4.06  4.24  4.33
##  3 1         3 -1.57 0.0141     0  1.37  2.39  3.15  3.69  4.06  4.25  4.30
##  4 1         4 -1.57 0.0143     0  1.36  2.41  3.12  3.69  4.06  4.26  4.32
##  5 1         5 -1.57 0.0143     0  1.36  2.41  3.12  3.69  4.06  4.26  4.32
##  6 1         6 -1.57 0.0148     0  1.37  2.41  3.12  3.69  4.05  4.25  4.33
##  7 1         7 -1.66 0.0137     0  1.46  2.52  3.22  3.78  4.17  4.35  4.42
##  8 1         8 -1.66 0.0142     0  1.48  2.52  3.22  3.78  4.14  4.34  4.42
##  9 1         9 -1.66 0.0142     0  1.48  2.52  3.22  3.78  4.14  4.34  4.42
## 10 1        10 -1.68 0.0144     0  1.46  2.52  3.26  3.82  4.19  4.37  4.44
## # … with 990 more rows, and 7 more variables: b2_9 <dbl>, b2_10 <dbl>,
## #   b2_11 <dbl>, b2_12 <dbl>, b2_13 <dbl>, b2_14 <dbl>, b3 <dbl>
…
