…
Submission

The test data can be processed in exactly the same way.

# --- prepare submission -------------------------------------
testRawDF %>%
  mutate( baseSales  = sales / (1-discount) ) %>%
  mutate( .fitted = 10 ^ predict(mod, newdata=.) ) %>%
  mutate( yhat = .fitted  - sales * discount / (1 - discount) ) %>%
  rename( profit = yhat) %>%
  select( id, profit) %>%
  print() %>%
  write.csv( file.path( home, "temp/submission1.csv"),row.names=FALSE )

## # A tibble: 2,821 x 2
##       id profit
##    <dbl>  <dbl>
##  1  5195   6.11
##  2  6540 -23.9 
##  3  3606 -10.7 
##  4  8514   3.32
##  5  6893   7.64
##  6  1936 -18.9 
##  7  1593  -8.46
##  8  8245   6.84
##  9  4178 -61.4 
## 10  3369   6.23
## # ... with 2,811 more rows
…
