Methods: PipeOps in mlr3 | Modelling with R
…
library(tidyverse)
library(mlr3verse)

# --- set home directory -------------------------------
home <- "C:/Projects/kaggle/sliced/s01-e01"

# --- read downloaded data -----------------------------
trainRawDF <- readRDS( file.path(home, "data/rData/train.rds") )
                
testRawDF <- readRDS( file.path(home, "data/rData/test.rds") )

print(trainRawDF)

## # A tibble: 3,499 x 26
##    game_id names min_players max_players avg_time min_time max_time  year
##      <dbl> <chr>       <dbl>       <dbl>    <dbl>    <dbl>    <dbl> <dbl>
##  1   17526 Heca~           2           4       30       30       30  2005
##  2     156 Wild~           2           6       60       60       60  1985
##  3    2397 Back~           2           2       30       30       30 -3000
##  4    8147 Maka~           2           6       60       45       60  2003
##  5   92190 Supe~           2           6      120      120      120  2011
##  6    1668 Mode~           2           6       90       90       90  1989
##  7   28089 Chât~           2           4       30       30       30  2007
##  8    4854 7th ~           2           2      120      120      120  1987
##  9   75333 Targ~           1           4       90       90       90  2010
## 10   21791 Maso~           2           4       45       45       45  2006
## # ... with 3,489 more rows, and 18 more variables: geek_rating <dbl>,
## #   num_votes <dbl>, age <dbl>, mechanic <chr>, owned <dbl>, category1 <chr>,
## #   category2 <chr>, category3 <chr>, category4 <chr>, category5 <chr>,
## #   category6 <chr>, category7 <chr>, category8 <chr>, category9 <chr>,
## #   category10 <chr>, category11 <chr>, category12 <chr>, designer <chr>
…
Later I will combine this with the other PipeOps. If you want to understand what ppl() does, then there is an example in the mlr3gallery at https://mlr3gallery.mlr-org.com/posts/2020-06-15-target-transformations-via-pipelines/

Extracting Key Phases

The string variable mechanic contains phases that describe the game mechanics. They are separated by commas.

trainRawDF %>%
  select( mechanic)

## # A tibble: 3,499 x 1
##    mechanic                                                                     
##    <chr>                                                                        
##  1 Hand Management                                                              
##  2 Point to Point Movement, Route/Network Building                              
##  3 Betting/Wagering, Dice Rolling, Roll / Spin and Move                         
##  4 Secret Unit Deployment, Simultaneous Action Selection                        
##  5 Action Point Allowance System, Dice Rolling, Modular Board, Partnerships, Va~
##  6 Hand Management, Take That                                                   
##  7 Action Point Allowance System, Memory                                        
##  8 Dice Rolling, Hex-and-Counter                                                
##  9 Co-operative Play, Dice Rolling, Simulation                                  
## 10 Dice Rolling, Hand Management                                                
## # ... with 3,489 more rows
…
    select( mechanic) %>%
    separate(mechanic, sep=",",
             into=paste("x", 1:10, sep=""),
             remove=TRUE, extra="drop", fill="right" ) %>%
    pivot_longer(everything(), values_to="terms", names_to="source" ) %>%
    filter( !is.na(terms) ) %>%
    mutate( terms = str_trim(terms)) %>%
    filter( terms != "" ) %>%
    group_by( terms) %>%
    summarise( n = n() , .groups="drop") %>%
    arrange( desc(n)) %>%
    print() %>%
    pull(terms) -> keyPhrases

## # A tibble: 52 x 2
##    terms                             n
##    <chr>                         <int>
##  1 Dice Rolling                    990
##  2 Hand Management                 963
##  3 Variable Player Powers          644
##  4 Set Collection                  511
##  5 Area Control / Area Influence   446
##  6 Card Drafting                   415
##  7 Modular Board                   401
##  8 Tile Placement                  391
##  9 Hex-and-Counter                 317
## 10 Action Point Allowance System   287
## # ... with 42 more rows

There are 52 phrases in the dataset of which Dice Rolling is the most common.

I’ll make a tibble with 52 indicator (0/1) columns that encode whether each phase applies to that game. The code uses a map() function from purrr.

# --- named list of the phrases ------------------------------
phrases <- as.list(keyPhrases)
names(phrases) <- paste("M", 1:52, sep="")

# --- create indicators --------------------------------------
map_df(phrases, ~ as.numeric(str_detect(trainRawDF$mechanic, .x)) ) %>%
  print() -> mecDF

## # A tibble: 3,499 x 52
##       M1    M2    M3    M4    M5    M6    M7    M8    M9   M10   M11   M12   M13
##    <dbl> <dbl> <dbl> <dbl> <dbl> <dbl> <dbl> <dbl> <dbl> <dbl> <dbl> <dbl> <dbl>
##  1     0     1     0     0     0     0     0     0     0     0     0     0     0
##  2     0     0     0     0     0     0     0     0     0     0     0     0     0
##  3     1     0     0     0     0     0     0     0     0     0     0     0     0
##  4     0     0     0     0     0     0     0     0     0     0     0     1     0
##  5     1     0     1     0     0     0     1     0     0     1     0     0     0
##  6     0     1     0     0     0     0     0     0     0     0     0     0     0
##  7     0     0     0     0     0     0     0     0     0     1     0     0     0
##  8     1     0     0     0     0     0     0     0     1     0     0     0     0
##  9     1     0     0     0     0     0     0     0     0     0     1     0     0
## 10     1     1     0     0     0     0     0     0     0     0     0     0     0
## # ... with 3,489 more rows, and 39 more variables: M14 <dbl>, M15 <dbl>,
## #   M16 <dbl>, M17 <dbl>, M18 <dbl>, M19 <dbl>, M20 <dbl>, M21 <dbl>,
## #   M22 <dbl>, M23 <dbl>, M24 <dbl>, M25 <dbl>, M26 <dbl>, M27 <dbl>,
## #   M28 <dbl>, M29 <dbl>, M30 <dbl>, M31 <dbl>, M32 <dbl>, M33 <dbl>,
## #   M34 <dbl>, M35 <dbl>, M36 <dbl>, M37 <dbl>, M38 <dbl>, M39 <dbl>,
## #   M40 <dbl>, M41 <dbl>, M42 <dbl>, M43 <dbl>, M44 <dbl>, M45 <dbl>,
## #   M46 <dbl>, M47 <dbl>, M48 <dbl>, M49 <dbl>, M50 <dbl>, M51 <dbl>, M52 <dbl>
…
