Sliced Episode 8: Spotify Popularity | Modelling with R
…
Artist’s genres

The artists are classified by the genre of their music. Here are some examples,

artistRawDF %>%
  select( genres) %>%
  print()

## # A tibble: 17,718 x 1
##    genres                                                                       
##    <chr>                                                                        
##  1 ['country blues', 'country rock', 'piedmont blues']                          
##  2 ['turkish pop']                                                              
##  3 ['celtic', 'irish folk']                                                     
##  4 ['kindermusik', 'kleine hoerspiel']                                          
##  5 ['opm', 'vispop']                                                            
##  6 ['classic mandopop']                                                         
##  7 ['album rock', 'alternative rock', 'blues rock', 'classic rock', 'country ro~
##  8 ['country', 'country rock', 'oklahoma country']                              
##  9 ['trondersk musikk']                                                         
## 10 ['alternative rock', 'anti-folk', 'indie rock', 'modern rock', 'permanent wa~
## # ... with 17,708 more rows
…
I’ll start by removing the square brackets from genre and then I’ll split using the commas.

library(myText)

prep1DF %>%
  mutate( genre = str_replace_all(genre, "\\[", ""),
          genre = str_replace_all(genre, "\\]", ""),
          genre = ifelse( is.na(genre), "", genre )) %>%
  select_indicators(col=genre, response=popularity, 
                    nTerms=12, minCount=100, sep=",") %>%
  filter( p_value < 0.001 ) %>%
  print(n=10) -> wordsDF

## # A tibble: 130 x 5
##    term                    count   p_value mWithout mWith
##    <chr>                   <int>     <dbl>    <dbl> <dbl>
##  1 'classical'               656 4.84e-151     28.2  9.75
##  2 'rock'                   1143 4.16e-108     27.0 37.6 
##  3 'pop'                     378 3.87e- 93     27.1 54.6 
##  4 'dance pop'               389 8.19e- 89     27.2 50.4 
##  5 'vintage tango'           109 4.48e- 78     27.7  1.05
##  6 'classic bollywood'       380 6.24e- 69     27.8 13.3 
##  7 'classic icelandic pop'   144 2.04e- 68     27.7  8.63
##  8 'tango'                   115 2.19e- 68     27.7  1.84
##  9 'rap'                     175 4.87e- 64     27.3 55.2 
## 10 'hip hop'                 177 1.74e- 63     27.4 53.1 
## # ... with 120 more rows
…
# --- indicators for the keys -------------------------------------
prep1DF <- add_indicators(prep1DF, "key", as.character(1:11), "K")

Zeros & missing values

Many of the continuous measures contain a few zeros that are well separated from the bulk of the scores. Let’s take speechiness as an example

prep1DF %>%
  filter( speechiness == 0 ) %>%
  select(popularity, avgArtistPop, name) %>%
  print( n=10 )

## # A tibble: 18 x 3
##    popularity avgArtistPop name                                                 
##         <int>        <dbl> <chr>                                                
##  1         52           NA "White Noise Car Sound for Baby Sleep (Loopable)"    
##  2          7           59 "Wus Geven Ist Geven"                                
##  3         64           NA "Big Fan Dulled"                                     
##  4         27           76 "Kapitel 37 - als BÃ¼rgermeister (Folge 057)"        
##  5         53           NA "Staubsauger (Sanft)"                                
##  6         65           NA "White Noise for Baby 432 Hz (Loopable with No Fade)"
##  7         32           NA "Rain Sounds & White Noise (Loopable, No Fade Sleep ~
##  8          0           47 "El amor brujo \"Ballet-pantomime\": 4. El Aparecido"
##  9         32           NA "Heavier Rain Fall with Thunder"                     
## 10         28           31 "Sleeping Baby One Hour of Pink Noise"               
## # ... with 8 more rows
…
I will also introduce an extra indicator, artistNA, to denote missing artists in case that is predictive.

# --- impute missing values -----------------------------------------
prep1DF %>%
  mutate( artistNA = as.numeric( is.na(avgArtistPop)),
          avgArtistPop = ifelse(is.na(avgArtistPop), 6, avgArtistPop ),
          avgFollowers = ifelse(is.na(avgFollowers), 0, avgFollowers ))  -> prep1DF

The names of the tracks are unlikely to contain much useful information. Here are some examples,

prep1DF %>%
  select(name)

## # A tibble: 21,000 x 1
##    name                                  
##    <chr>                                 
##  1 blun7 a swishland                     
##  2 Que Me Perdone Tu SeÃ±ora             
##  3 æ„›å”„~since 2007~                    
##  4 Let me be your uncle tonight          
##  5 Never Going Back Again - 2004 Remaster
##  6 Lilla snigel                          
##  7 Meu Lugar                             
##  8 Khalifa                               
##  9 From Four Until Late                  
## 10 Riders On the Storm                   
## # ... with 20,990 more rows
…
A RMSE of 10.7 is not quite as good and would only just put us in the top ten on the leaderboard.

It is interesting to see which predictors are most important for the model and again we can either use the provided function importance() or we can extract the data and list it for ourselves

# --- extract importance ----------------------------------
tibble( term = attr(rfmod$importance, "dimnames")[[1]],
        purity = as.numeric(rfmod$importance) ) %>%
  mutate( pct = round(100*purity/sum(purity),1) ) %>%
  arrange( desc(purity) ) %>% 
  print( n=20)

## # A tibble: 164 x 3
##    term               purity   pct
##    <chr>               <dbl> <dbl>
##  1 release_year     1249184.  28.7
##  2 avgArtistPop      765214.  17.6
##  3 avgFollowers      445780.  10.2
##  4 acousticness      269354.   6.2
##  5 loudness          195299.   4.5
##  6 duration          128152.   2.9
##  7 energy            123587.   2.8
##  8 danceability      109795.   2.5
##  9 instrumentalness  102694.   2.4
## 10 valence           102378.   2.4
## 11 liveness           99038.   2.3
## 12 speechiness        96683.   2.2
## 13 tempo              88127.   2  
## 14 M4                 34505.   0.8
## 15 X1                 34069.   0.8
## 16 X36                30866.   0.7
## 17 X31                29086.   0.7
## 18 X3                 19503.   0.4
## 19 X2                 14045.   0.3
## 20 X63                13407.   0.3
## # ... with 144 more rows
…
