Sliced Episode 5: Airbnb Price Prediction | Modelling with R
…
Next the smaller areas

# --- average prices by neighbourhood ------------------
prep1DF %>%
  group_by( neighbourhood ) %>%
  summarise( n = n(),
             m = mean(price),
             s = sd(price),
             gm = exp(m) - 1,
             lat = mean(latitude),
             lng = mean(longitude),
             .groups="drop") %>%
  arrange( desc(m))

## # A tibble: 217 x 7
##    neighbourhood         n     m      s    gm   lat   lng
##    <chr>             <int> <dbl>  <dbl> <dbl> <dbl> <dbl>
##  1 Woodrow               1  6.55 NA      700   40.5 -74.2
##  2 Tribeca             128  5.82  0.813  335.  40.7 -74.0
##  3 Prince's Bay          3  5.60  1.38   270.  40.5 -74.2
##  4 Flatiron District    55  5.59  0.668  268.  40.7 -74.0
##  5 Neponsit              2  5.58  0.394  265.  40.6 -73.9
##  6 NoHo                 53  5.54  0.546  254.  40.7 -74.0
##  7 Sea Gate              7  5.46  1.27   233.  40.6 -74.0
##  8 Midtown            1113  5.44  0.634  230.  40.8 -74.0
##  9 Breezy Point          2  5.40  0.175  221.  40.6 -73.9
## 10 West Village        525  5.38  0.554  217.  40.7 -74.0
## # ... with 207 more rows
…
The cluster of properties over 300 were all rented out by the same person/company. Let’s look at them

# --- host with over 300 properties -------------------------
prep1DF %>%
  filter( calculated_host_listings_count > 300) %>%
  select( host_id, host_name,  calculated_host_listings_count)

## # A tibble: 229 x 3
##      host_id host_name    calculated_host_listings_count
##        <int> <chr>                                 <int>
##  1 219517861 Sonder (NYC)                            327
##  2 219517861 Sonder (NYC)                            327
##  3 219517861 Sonder (NYC)                            327
##  4 219517861 Sonder (NYC)                            327
##  5 219517861 Sonder (NYC)                            327
##  6 219517861 Sonder (NYC)                            327
##  7 219517861 Sonder (NYC)                            327
##  8 219517861 Sonder (NYC)                            327
##  9 219517861 Sonder (NYC)                            327
## 10 219517861 Sonder (NYC)                            327
## # ... with 219 more rows
…
The dip around 5 properties is interesting and may reflect the division between individuals and companies.

name

name is a misnomer, what we actually have is a brief description of the property.

Here are some examples

# --- example of the name field ----------------------------
prep1DF %>%
  select( name) 

## # A tibble: 34,218 x 1
##    name                                    
##    <chr>                                   
##  1 Cute big one bedroom                    
##  2 Feel like you never leave your home     
##  3 Pristine Lower East Side Sanctuary      
##  4 Luxe, Spacious 2BR 2BA Nr Trains        
##  5 1BD brownstone apt in Fort Greene!      
##  6 LOVELY  LARGE SUNNY ROOM    Sunset Park 
##  7 NE..Comfortable Room All Inclusive      
##  8 Bright, Spacious Studio in Brooklyn     
##  9 Upper west Apt close to Central Pk      
## 10 Artist's Jungle Suite + Private Bathroom
## # ... with 34,208 more rows
…
library(myText)

prep2DF %>%
  select_indicators(col=name, response=price, 
                    nTerms=12, minCount=100, sep=" ") %>%
  filter( str_length(term) > 1 ) %>%
  filter( !(term %in% c("the", "an", "to", "in",
                        "of", "by", "with", "and",
                        "at", "from", "for", "on",
                        "w/")) ) %>%
  filter( count > 100 & p_value < 0.001 ) %>%
  print(n=20) -> wordsDF

## # A tibble: 174 x 5
##    term       count   p_value mWithout mWith
##    <chr>      <int>     <dbl>    <dbl> <dbl>
##  1 room       16343 6.00e-323     4.87  4.59
##  2 private     5100 1.37e-303     4.79  4.44
##  3 cozy        3569 3.95e-157     4.77  4.48
##  4 village     1605 4.11e-156     4.72  5.14
##  5 luxury      1345 8.97e-150     4.72  5.27
##  6 bushwick    1025 2.97e-141     4.75  4.26
##  7 blueground   158 2.01e-129     4.73  5.71
##  8 bedroom     9034 1.32e-115     4.69  4.88
##  9 sonder       299 3.72e-107     4.73  5.43
## 10 bed        10834 1.14e- 97     4.68  4.85
## 11 apartment   8056 2.11e- 88     4.70  4.86
## 12 west        1132 1.94e- 84     4.72  5.13
## 13 art         9981 2.32e- 81     4.69  4.84
## 14 chelsea      501 1.40e- 75     4.73  5.27
## 15 own         2991 2.69e- 75     4.71  4.97
## 16 midtown      914 1.21e- 73     4.73  5.17
## 17 shared       307 3.65e- 68     4.74  4.02
## 18 studio      2917 1.34e- 67     4.72  4.90
## 19 doorman      317 2.79e- 67     4.73  5.37
## 20 gym          316 3.81e- 66     4.73  5.43
## # ... with 154 more rows
…
# that this neighbourhood is merged with
prep2DF %>%
  select( neighbourhood, latitude, longitude) %>%
  bind_rows( testRawDF %>%
               mutate( neighbourhood = str_replace(neighbourhood,
                      "Bay Terrace, Staten Island", "Bay Terrace")) %>%
             select( neighbourhood, latitude, longitude) ) %>%
  group_by( neighbourhood) %>%
  summarise( n = n(),
             lat = mean(latitude),
             lng = mean(longitude),.groups = "drop") %>%
  mutate( merge = 0 ) %>%
  print() -> nbdDF

## # A tibble: 220 x 5
##    neighbourhood         n   lat   lng merge
##    <chr>             <int> <dbl> <dbl> <dbl>
##  1 Allerton             42  40.9 -73.9     0
##  2 Arden Heights         4  40.6 -74.2     0
##  3 Arrochar             21  40.6 -74.1     0
##  4 Arverne              77  40.6 -73.8     0
##  5 Astoria             900  40.8 -73.9     0
##  6 Bath Beach           17  40.6 -74.0     0
##  7 Battery Park City    70  40.7 -74.0     0
##  8 Bay Ridge           141  40.6 -74.0     0
##  9 Bay Terrace           8  40.7 -73.9     0
## 10 Baychester            7  40.9 -73.8     0
## # ... with 210 more rows
…
  # --- How many small areas are left --------------
  nSmall <- sum( nbdDF$n < 25 & nbdDF$merge == 0)
}

print(nbdDF)

## # A tibble: 220 x 5
##    neighbourhood         n   lat   lng merge
##    <chr>             <int> <dbl> <dbl> <dbl>
##  1 Allerton             42  40.9 -73.9     0
##  2 Arden Heights         4  40.6 -74.2   101
##  3 Arrochar             21  40.6 -74.1    46
##  4 Arverne              77  40.6 -73.8     0
##  5 Astoria             900  40.8 -73.9     0
##  6 Bath Beach           17  40.6 -74.0    17
##  7 Battery Park City    70  40.7 -74.0     0
##  8 Bay Ridge           153  40.6 -74.0     0
##  9 Bay Terrace           8  40.7 -73.9   125
## 10 Baychester            7  40.9 -73.8   154
## # ... with 210 more rows
…
We can check that neighbourhood2 looks sensible

# --- look at the new variable -------------------
prep2DF %>%
  group_by( neighbourhood2) %>%
  summarise( n = n(),
             .groups = "drop") 

## # A tibble: 134 x 2
##    neighbourhood2         n
##    <chr>              <int>
##  1 Allerton              35
##  2 Arverne               53
##  3 Astoria              640
##  4 Battery Park City     44
##  5 Bay Ridge            116
##  6 Bayside               36
##  7 Bedford-Stuyvesant  2595
##  8 Bensonhurst           76
##  9 Boerum Hill          132
## 10 Borough Park          90
## # ... with 124 more rows
…
and to calculate the variable importance measures.

xgb.importance(model=xgmod) %>%
  as_tibble() %>%
  print() -> importDF

## # A tibble: 111 x 4
##    Feature                           Gain  Cover Frequency
##    <chr>                            <dbl>  <dbl>     <dbl>
##  1 R1                             0.721   0.136     0.0219
##  2 N78                            0.0369  0.0663    0.0219
##  3 availability_365               0.0277  0.0703    0.0973
##  4 reviews_per_month              0.0187  0.0410    0.117 
##  5 minimum_nights                 0.0161  0.0479    0.105 
##  6 N61                            0.0142  0.0471    0.0170
##  7 X18                            0.0113  0.0319    0.0292
##  8 N19                            0.0100  0.0438    0.0146
##  9 calculated_host_listings_count 0.00970 0.0146    0.0535
## 10 X4                             0.00907 0.0338    0.0122
## # ... with 101 more rows
…
