Bayes Sliced 2: Wildlife Strikes | Modelling with R
…
                  is.na(size) + is.na(visibility) + is.na(engine_type) + 
                  is.na(engines) + is.na(faa_region) )  %>%
  # --- add missing as a category --------------------------
  mutate( across( where( is.factor), fct_explicit_na) ) %>%
  # --- order levels by frequency --------------------------
  mutate( across( where( is.factor), fct_infreq) ) %>%
  # --- drop any empty categories --------------------------
  mutate( across( where( is.factor), fct_drop) ) %>%
  # select relevant data
  select( damaged, nmiss, flight_phase, aircraft_mass, 
         operator_id, species_quantity, size, month,
         visibility, engine_type, engines, faa_region) %>%
  print() -> sampleDF  

## # A tibble: 1,375 × 12
##    damaged nmiss flight_phase aircraft_mass operator_id species_quantity size   
##      <dbl> <int> <fct>        <fct>         <fct>       <fct>            <fct>  
##  1       0     3 (Missing)    large         SWA         1                medium…
##  2       0     0 APPROACH     medium        BUS         2-10             smallB…
##  3       0     5 (Missing)    (Missing)     UNK         1                smallB…
##  4       0     3 (Missing)    large         UAL         1                smallB…
##  5       0     5 (Missing)    (Missing)     UNK         1                medium…
##  6       0     0 APPROACH     large         FDX         1                medium…
##  7       0     3 (Missing)    large         SWA         1                smallB…
##  8       0     3 (Missing)    large         SWA         1                smallB…
##  9       0     0 APPROACH     medium        EGF         1                smallB…
## 10       0     5 (Missing)    (Missing)     UNK         2-10             smallB…
## # … with 1,365 more rows, and 5 more variables: month <fct>, visibility <fct>,
## #   engine_type <fct>, engines <fct>, faa_region <fct>
…
