Sliced Episode 7: Customer Churn | Modelling with R
…
## 0.00( 11)  0.00(  4)  0.02( 62)  0.01(171)  0.60(124)  0.30(280)  0.21(248)  
## 0.00(  8)  0.06(278)  0.05( 20)  0.29( 24)  0.88(200)  0.17( 92)  0.29( 45)  
## 0.00( 45)  0.06( 31)  0.03( 40)  0.03( 65)  0.17(114)  0.10( 63)  0.05( 38)  
## 0.02(134)  0.12( 26)  0.06( 67)  0.06(250)  0.77( 35)  0.01(200)  0.00(176)  
## 0.10(115)  0.32(252)  0.00(376)  0.09(207)  0.14(153)  0.43( 67)  0.64(176)  
## 0.08(106)  0.05(178)  0.11(163)  0.04(777)  0.71(170)  0.17(109)  0.11(174)  
## 0.03(124)  0.22( 45)  0.11(149)  0.10(220)  0.04(157)  0.00(296)  0.21(223)

Cell 26 is in position (middle row, column=5). It contains 35 people and 77% of them churned. I have already looked at the characteristics that define this cell. Here are the demographics of some of the 35 people. Remember that, the demographic features were not used to create the cluster.

trainDF %>%
  filter( bins == 26 ) %>%
  select( churn, age, gender, education, income)

## # A tibble: 35 x 5
##    churn   age gender education     income        
##    <int> <int> <fct>  <fct>         <fct>         
##  1     1    59 female Post-Graduate $40K - $60K   
##  2     0    38 female Graduate      Less than $40K
##  3     1    51 female Uneducated    Unknown       
##  4     1    55 male   Uneducated    $60K - $80K   
##  5     1    51 female Unknown       $40K - $60K   
##  6     1    45 female Uneducated    Less than $40K
##  7     0    59 male   Post-Graduate $40K - $60K   
##  8     0    57 female Graduate      $40K - $60K   
##  9     1    64 female High School   $40K - $60K   
## 10     1    43 female Post-Graduate Less than $40K
## # ... with 25 more rows
…
