…
I will use the function to extract common words from the property description and construct indicator variables to show the number of times that the words occur in each description.

# --- DF of indicators for commonly occurring words --------------------
trainRawDF %>%
  mutate( description = ifelse( is.na(description), "", description)) %>%
  { text_indicators(.[["description"]], 
                    200, 3, 
                    prefix = "desc")} %>%
  print() -> indicatorDF

## # A tibble: 10,000 x 394
##    desc.best desc.agent desc.rare desc.view desc.lot desc.see desc.home desc.sit
##        <dbl>      <dbl>     <dbl>     <dbl>    <dbl>    <dbl>     <dbl>    <dbl>
##  1         1          2         1         1        1        1         2        1
##  2         0          0         0         0        0        0         1        0
##  3         0          0         0         0        0        0         1        0
##  4         0          0         0         0        1        0         2        0
##  5         0          0         0         0        0        0         1        0
##  6         0          0         0         0        0        0         1        0
##  7         0          0         0         1        1        1         3        0
##  8         0          0         0         0        0        0         0        0
##  9         0          1         0         0        1        0         3        0
## 10         0          0         0         0        0        0         0        0
## # ... with 9,990 more rows, and 386 more variables: `desc.cul-de-sac` <dbl>,
## #   desc.back <dbl>, desc.stun <dbl>, desc.remodel <dbl>, desc.kitchen <dbl>,
## #   desc.bathroom <dbl>, desc.master <dbl>, desc.suit <dbl>, desc.privat <dbl>,
## #   desc.bath <dbl>, desc.huge <dbl>, desc.bedroom <dbl>, `desc.walk-in` <dbl>,
## #   desc.closet <dbl>, desc.deck <dbl>, desc.pool <dbl>, desc.park <dbl>,
## #   desc.tenni <dbl>, desc.court <dbl>, desc.high <dbl>, desc.well <dbl>,
## #   desc.love <dbl>, desc.featur <dbl>, desc.live <dbl>, desc.area <dbl>,
## #   desc.offic <dbl>, desc.car <dbl>, desc.garag <dbl>, desc.austin <dbl>,
## #   desc.singl <dbl>, desc.famili <dbl>, desc.contain <dbl>, desc.built <dbl>,
…
It would be interesting to know which words are associated with price. I will use a kruskal-wallis nonparameteric test to assess the association

# --- kruskal-wallis test of counts vs priceRange ------------------
trainRawDF %>%
  select( priceRange) %>%
  bind_cols(indicatorDF) %>%
  pivot_longer(starts_with("d"), names_to="var", values_to="count") %>%
  group_by( var) %>%
  summarise( p = kruskal.test(count, priceRange)$p.value, .groups="drop") %>%
  filter( p < 0.05) %>% 
  arrange( p ) %>% 
  print()             -> keyVarDF

## # A tibble: 293 x 2
##    var                  p
##    <chr>            <dbl>
##  1 desc.view    1.47e-108
##  2 desc.outdoor 2.32e- 94
##  3 desc.hill    4.89e- 90
##  4 desc.countri 1.84e- 88
##  5 desc.spa     4.87e- 84
##  6 desc.barton  7.02e- 74
##  7 desc.pool    3.10e- 65
##  8 desc.custom  9.91e- 58
##  9 desc.gourmet 5.02e- 56
## 10 desc.media   2.01e- 55
## # ... with 283 more rows
…
trainDF <- pre_process(trainRawDF)

# --- combine indicators with clean training data -----
trainDF <- bind_cols( trainDF %>% 
                      select( -description, -uid),
                      indicatorDF)

# --- remove the hyphens from the column names ------------
names(trainDF) <- str_replace_all(names(trainDF), "-", "_")

trainDF

## # A tibble: 10,000 x 410
##    city  homeType latitude longitude garageSpaces hasSpa yearBuilt
##    <fct> <fct>       <dbl>     <dbl>        <dbl>  <dbl>     <dbl>
##  1 Aust~ Single ~     30.4     -97.8            0      0      1988
##  2 Aust~ Single ~     30.2     -97.9            0      0      1997
##  3 Aust~ Single ~     30.2     -97.7            0      0      1952
##  4 Aust~ Single ~     30.2     -97.8            4      0      1976
##  5 Aust~ Single ~     30.3     -97.8            2      0      1984
##  6 Aust~ Single ~     30.2     -97.8            0      0      1964
##  7 Aust~ Single ~     30.3     -97.9            0      0      2015
##  8 Aust~ Multiple     30.3     -97.7            1      0      1967
##  9 Aust~ Single ~     30.2     -97.8            2      0      1983
## 10 Aust~ Single ~     30.4     -97.7            0      0      1972
## # ... with 9,990 more rows, and 403 more variables:
## #   numOfPatioAndPorchFeatures <dbl>, lotSizeSqFt <dbl>, avgSchoolRating <dbl>,
## #   MedianStudentsPerTeacher <dbl>, numOfBathrooms <dbl>, numOfBedrooms <dbl>,
## #   priceRange <fct>, radius <dbl>, angle <dbl>, desc.best <dbl>,
## #   desc.agent <dbl>, desc.rare <dbl>, desc.view <dbl>, desc.lot <dbl>,
## #   desc.see <dbl>, desc.home <dbl>, desc.sit <dbl>, desc.cul_de_sac <dbl>,
## #   desc.back <dbl>, desc.stun <dbl>, desc.remodel <dbl>, desc.kitchen <dbl>,
## #   desc.bathroom <dbl>, desc.master <dbl>, desc.suit <dbl>, desc.privat <dbl>,
## #   desc.bath <dbl>, desc.huge <dbl>, desc.bedroom <dbl>, desc.walk_in <dbl>,
…
# --- pre-process the test data -------------------------
testDF <- pre_process(testRawDF)

# --- set text indicators -----------------------------
testIndDF <- NULL
testDF$description <- tolower(testDF$description)

for( v in names(indicatorDF) ) {
  word <- str_replace(v, "desc.", "")
  testIndDF[[ v]] <- as.double(str_count(testDF$description, word))
}
as_tibble(testIndDF)

## # A tibble: 4,961 x 394
##    desc.best desc.agent desc.rare desc.view desc.lot desc.see desc.home desc.sit
##        <dbl>      <dbl>     <dbl>     <dbl>    <dbl>    <dbl>     <dbl>    <dbl>
##  1         0          0         0         0        0        0         0        0
##  2         0          0         0         0        2        0         0        0
##  3         0          0         0         0        0        0         1        0
##  4         0          0         0         0        1        0         0        0
##  5         0          0         0         0        0        0         2        0
##  6         0          0         0         0        0        0         1        1
##  7         0          0         0         0        0        0         3        0
##  8         0          0         0         0        0        0         1        0
##  9         0          0         0         1        1        0         1        0
## 10         0          0         0         0        0        0         1        0
## # ... with 4,951 more rows, and 386 more variables: `desc.cul-de-sac` <dbl>,
## #   desc.back <dbl>, desc.stun <dbl>, desc.remodel <dbl>, desc.kitchen <dbl>,
## #   desc.bathroom <dbl>, desc.master <dbl>, desc.suit <dbl>, desc.privat <dbl>,
## #   desc.bath <dbl>, desc.huge <dbl>, desc.bedroom <dbl>, `desc.walk-in` <dbl>,
## #   desc.closet <dbl>, desc.deck <dbl>, desc.pool <dbl>, desc.park <dbl>,
## #   desc.tenni <dbl>, desc.court <dbl>, desc.high <dbl>, desc.well <dbl>,
## #   desc.love <dbl>, desc.featur <dbl>, desc.live <dbl>, desc.area <dbl>,
## #   desc.offic <dbl>, desc.car <dbl>, desc.garag <dbl>, desc.austin <dbl>,
## #   desc.singl <dbl>, desc.famili <dbl>, desc.contain <dbl>, desc.built <dbl>,
…
# --- combine indicators with clean test data -----
testDF <- bind_cols( testDF %>% 
                        select( -description),
                      as_tibble(testIndDF))

# --- remove the hyphens from the column names ------------
names(testDF) <- str_replace_all(names(testDF), "-", "_")

testDF

## # A tibble: 4,961 x 410
##      uid city  homeType latitude longitude garageSpaces hasSpa yearBuilt
##    <dbl> <fct> <fct>       <dbl>     <dbl>        <dbl>  <dbl>     <dbl>
##  1  4070 Aust~ Single ~     30.2     -97.7            2      0      2006
##  2  5457 Aust~ Single ~     30.2     -97.8            2      0      1954
##  3  2053 Aust~ Single ~     30.2     -97.8            2      0      2005
##  4  4723 Aust~ Single ~     30.2     -97.9            4      0      2006
##  5  5417 Aust~ Single ~     30.2     -97.8            3      0      1969
##  6  7231 Aust~ Single ~     30.1     -97.8            0      0      2008
##  7  9222 Aust~ Single ~     30.3     -97.8            3      0      1927
##  8  8795 Aust~ Single ~     30.4     -97.7            0      0      1984
##  9  3088 Aust~ Single ~     30.4     -97.8            2      0      1978
## 10  8194 Aust~ Single ~     30.5     -97.7            2      0      1994
## # ... with 4,951 more rows, and 402 more variables:
## #   numOfPatioAndPorchFeatures <dbl>, lotSizeSqFt <dbl>, avgSchoolRating <dbl>,
## #   MedianStudentsPerTeacher <dbl>, numOfBathrooms <dbl>, numOfBedrooms <dbl>,
## #   radius <dbl>, angle <dbl>, desc.best <dbl>, desc.agent <dbl>,
## #   desc.rare <dbl>, desc.view <dbl>, desc.lot <dbl>, desc.see <dbl>,
## #   desc.home <dbl>, desc.sit <dbl>, desc.cul_de_sac <dbl>, desc.back <dbl>,
## #   desc.stun <dbl>, desc.remodel <dbl>, desc.kitchen <dbl>,
## #   desc.bathroom <dbl>, desc.master <dbl>, desc.suit <dbl>, desc.privat <dbl>,
## #   desc.bath <dbl>, desc.huge <dbl>, desc.bedroom <dbl>, desc.walk_in <dbl>,
…
