…
theme_set( theme_light())

home  <- "C:/Projects/kaggle/Sliced/s01-e02"

# --- read the cvs file of training data ------------------------------
read_csv( file.path(home, "data/rawData/train.csv") ) %>%
  print() %>%
  mutate( row = row_number(),
          engine_model = ifelse( row == 11111, 9, engine_model),
          engine_model = ifelse( row == 14757, 3, engine_model),
          engine_model = ifelse( row == 16548, 5, engine_model) ) %>%
  select( -row) %>%
  saveRDS( file.path(home, "data/rData/train.rds") )

## # A tibble: 21,000 x 34
##       id incident_year incident_month incident_day operator_id operator aircraft
##    <dbl>         <dbl>          <dbl>        <dbl> <chr>       <chr>    <chr>   
##  1 23637          1996             11            7 MIL         MILITARY T-1A    
##  2  8075          1999              6           26 UAL         UNITED ~ B-757-2~
##  3  5623          2011             12            1 SWA         SOUTHWE~ B-737-3~
##  4 19605          2007              9           13 SWA         SOUTHWE~ B-737-7~
##  5 15142          2007              9           13 MIL         MILITARY KC-135R 
##  6 27235          2013              5           28 UNK         UNKNOWN  UNKNOWN 
##  7 12726          2002              5            4 UAL         UNITED ~ B-767-3~
##  8 20781          2013              5           19 BUS         BUSINESS C-172   
##  9 12153          2015              7           22 UNK         UNKNOWN  UNKNOWN 
## 10  3933          2007              8           22 BUS         BUSINESS DIAMOND~
## # ... with 20,990 more rows, and 27 more variables: aircraft_type <chr>,
## #   aircraft_make <chr>, aircraft_model <dbl>, aircraft_mass <dbl>,
## #   engine_make <dbl>, engine_model <dbl>, engines <dbl>, engine_type <chr>,
## #   engine1_position <dbl>, engine2_position <dbl>, engine3_position <dbl>,
## #   engine4_position <dbl>, airport_id <chr>, airport <chr>, state <chr>,
## #   faa_region <chr>, flight_phase <chr>, visibility <chr>,
## #   precipitation <chr>, height <dbl>, speed <dbl>, distance <dbl>,
## #   species_id <chr>, species_name <chr>, species_quantity <chr>,
## #   flight_impact <chr>, damaged <dbl>

# --- read the csv file of test data ----------------------------------
read_csv( file.path(home, "data/rawData/test.csv") ) %>%
  print() %>%
  saveRDS( file.path(home, "data/rData/test.rds") )

## # A tibble: 9,000 x 33
##       id incident_year incident_month incident_day operator_id operator aircraft
##    <dbl>         <dbl>          <dbl>        <dbl> <chr>       <chr>    <chr>   
##  1 11254          2015              9           10 AAL         AMERICA~ B-737-8~
##  2 27716          1999              6           21 AAL         AMERICA~ MD-80   
##  3 29066          2004             10           31 UNK         UNKNOWN  UNKNOWN 
##  4  3373          2000              8           24 BUS         BUSINESS DA-2000 
##  5  1996          2015              9           19 DAL         DELTA A~ A-320   
##  6 18061          2003              7           29 UNK         UNKNOWN  UNKNOWN 
##  7 22237          2013              8           13 SWA         SOUTHWE~ B-737-3~
##  8 25346          2002              8           18 BUS         BUSINESS PA-28   
##  9 21554          2004              8           14 BUS         BUSINESS PA-28   
## 10  4273          2015              7           14 UNK         UNKNOWN  UNKNOWN 
## # ... with 8,990 more rows, and 26 more variables: aircraft_type <chr>,
## #   aircraft_make <chr>, aircraft_model <dbl>, aircraft_mass <dbl>,
## #   engine_make <dbl>, engine_model <dbl>, engines <dbl>, engine_type <chr>,
## #   engine1_position <dbl>, engine2_position <dbl>, engine3_position <dbl>,
## #   engine4_position <dbl>, airport_id <chr>, airport <chr>, state <chr>,
## #   faa_region <chr>, flight_phase <chr>, visibility <chr>,
## #   precipitation <chr>, height <dbl>, speed <dbl>, distance <dbl>,
## #   species_id <chr>, species_name <chr>, species_quantity <chr>,
## #   flight_impact <chr>
…
