Sliced Episode 12: Loan Defaults | Modelling with R
…
The model misclassifies 902 (6%) of those who actually repaid their loan and 2771 (61%) of those who default. Not that great.

Out of interest I look at the importance.

xgb.importance(model=xgmod) %>%
  as_tibble() 

## # A tibble: 217 x 4
##    Feature             Gain  Cover Frequency
##    <chr>              <dbl>  <dbl>     <dbl>
##  1 ApprovalFY        0.376  0.0754   0.104  
##  2 SBA_Appv          0.105  0.0350   0.0860 
##  3 DisbursementGross 0.0754 0.0299   0.148  
##  4 B13               0.0524 0.0128   0.00773
##  5 inState           0.0387 0.0124   0.0145 
##  6 GrAppv            0.0252 0.0143   0.0599 
##  7 NoEmp             0.0219 0.0137   0.0705 
##  8 CreateJob         0.0174 0.0175   0.0525 
##  9 RetainedJob       0.0160 0.0138   0.0534 
## 10 N64               0.0150 0.0140   0.00676
## # ... with 207 more rows
…
