…
The list of games has a few non-specific titles including Traditional Card Games and Outside the Scope of BGG. Black Powder is a a classic battle reconstruction game with small model soldiers and max_players=0 seems to be either an error, or a way of saying that there is no maximum number of players.

A similar picture is seen when we look at the games that take no time to play

# --- zero time to play ---------------------------------
trainRawDF %>%
  filter( max_time == 0 ) %>%
  select( game_id, names, min_time, max_time) 

## # A tibble: 44 x 4
##    game_id names                            min_time max_time
##      <dbl> <chr>                               <dbl>    <dbl>
##  1   60815 Black Powder                            0        0
##  2   10904 New Rules for Classic Games             0        0
##  3   21804 Traditional Card Games                  0        0
##  4     280 Neue Spiele im alten Rom                0        0
##  5  206931 Noch mal!                              20        0
##  6  222887 Twin It!                                0        0
##  7  227758 Kokoro: Avenue of the Kodama           30        0
##  8  216658 Smash Up: What Were We Thinking?       45        0
##  9  224710 Zombicide: Green Horde                 60        0
## 10   12071 Second Season Pro Football Game       120        0
## # ... with 34 more rows
…
Here are some extremely long game times.

# --- very long time to play ---------------------------------
trainRawDF %>%
  filter( avg_time > 1000 ) %>%
  select( game_id, names, avg_time, min_time, max_time) 

## # A tibble: 32 x 5
##    game_id names                                      avg_time min_time max_time
##      <dbl> <chr>                                         <dbl>    <dbl>    <dbl>
##  1    5622 Pacific War                                    6000       60     6000
##  2  163097 Beyond the Rhine                               3000     3000     3000
##  3    1563 Rise and Decline of the Third Reich            1440     1440     1440
##  4   27817 Marne 1918: Friedensturm                       1200        0     1200
##  5   29285 Case Blue                                     22500        0    22500
##  6   94373 Dien Bien Phu: The Final Gamble                1440        0     1440
##  7    1499 World in Flames                                6000      120     6000
##  8  193238 Tunisia II                                     3000      120     3000
##  9   70532 Tonkin: The Indochina war 1950-54 (second~     1800        0     1800
## 10    7614 A World at War                                 2880     1440     2880
## # ... with 22 more rows

Case Blue is a political strategy game that BGG says can last between 1440 and 22500 minutes. This takes some believing, but even if it were true the minimum time is not 0 minutes and the average must be less than 22500.

Text analysis

The fields mechanic and category1 to category12 contain structured text that describes the way that the game is played and the type of game. In the case of mechanic the information is contained in a single column with a comma separator.

# --- game mechanics -------------------------------------
trainRawDF %>%
  select( mechanic)

## # A tibble: 3,499 x 1
##    mechanic                                                                     
##    <chr>                                                                        
##  1 Hand Management                                                              
##  2 Point to Point Movement, Route/Network Building                              
##  3 Betting/Wagering, Dice Rolling, Roll / Spin and Move                         
##  4 Secret Unit Deployment, Simultaneous Action Selection                        
##  5 Action Point Allowance System, Dice Rolling, Modular Board, Partnerships, Va~
##  6 Hand Management, Take That                                                   
##  7 Action Point Allowance System, Memory                                        
##  8 Dice Rolling, Hex-and-Counter                                                
##  9 Co-operative Play, Dice Rolling, Simulation                                  
## 10 Dice Rolling, Hand Management                                                
## # ... with 3,489 more rows

In contrast, the categories are spread over 12 columns so no separator is needed. Here are the first few entries.

# --- game categorisation --------------------------------
trainRawDF %>%
  select( category1, category2, category3)

## # A tibble: 3,499 x 3
##    category1         category2              category3     
##    <chr>             <chr>                  <chr>         
##  1 Card Game         Collectible Components Horror        
##  2 Animals           Exploration            Transportation
##  3 Abstract Strategy Dice                   <NA>          
##  4 Bluffing          Card Game              City Building 
##  5 Adventure         Exploration            Fantasy       
##  6 Card Game         Modern Warfare         Nautical      
##  7 Animals           Children's Game        Maze          
##  8 Modern Warfare    Nautical               Wargame       
##  9 Science Fiction   <NA>                   <NA>          
## 10 City Building     Medieval               <NA>          
## # ... with 3,489 more rows
…
  # --- drop any missing values ---
  filter( !is.na(items) ) %>%
  # --- trim unwanted white space ---
  mutate( items = str_trim(items)) %>%
  # --- remove the 'none' category ---
  filter( items != "none" ) %>%
  # --- arrange by frequency ---
  count( items, sort=TRUE) %>%
  # --- remove rare mechanics ---
  filter( n >= 25 ) %>%
  # --- extract to a character vector ---
  print() %>%
  pull( items ) -> mecWords

## # A tibble: 45 x 2
##    items                             n
##    <chr>                         <int>
##  1 Dice Rolling                    990
##  2 Hand Management                 961
##  3 Variable Player Powers          580
##  4 Set Collection                  506
##  5 Area Control / Area Influence   446
##  6 Card Drafting                   415
##  7 Modular Board                   398
##  8 Tile Placement                  377
##  9 Hex-and-Counter                 317
## 10 Action Point Allowance System   287
## # ... with 35 more rows
…
  # --- t-test and mean geek ratings ------------------
  mecDF$p_value[i]  <- t.test(tDF$y ~ tDF$class )$p.value
  mecDF$mWithout[i] <- mean(tDF$y[tDF$class==0])
  mecDF$mWith[i]    <- mean(tDF$y[tDF$class==1])
}
# --- sort and display --------------------------------
mecDF %>%
  arrange(p_value) %>%
  print() -> mecDF

## # A tibble: 45 x 4
##    mechanic                       p_value mWithout  mWith
##    <chr>                            <dbl>    <dbl>  <dbl>
##  1 Hex-and-Counter               5.14e-33   -0.341 -0.536
##  2 Variable Player Powers        3.69e-21   -0.386 -0.241
##  3 Card Drafting                 2.04e-16   -0.377 -0.225
##  4 Area Control / Area Influence 1.35e-15   -0.377 -0.238
##  5 Hand Management               1.10e-14   -0.386 -0.287
##  6 Chit-Pull System              3.38e-12   -0.355 -0.582
##  7 Worker Placement              1.39e-11   -0.370 -0.207
##  8 Deck / Pool Building          1.16e- 9   -0.368 -0.221
##  9 Grid Movement                 3.16e- 8   -0.368 -0.231
## 10 Action Point Allowance System 1.29e- 7   -0.368 -0.256
## # ... with 35 more rows

So Hex-and-Counter games have an average transformed rating of -0.536 (geometric average geek rating 10^-0.536 + 5.5 = 5.79) as opposed to -0.341 (rating=5.96) for games that do not use Hex-and-Counter, a very significant difference.

I wanted to do much the same thing for categories and designers, so I wrote a function that does all this in one go; it is called select_indicators(). In order not to interrupt the flow, I’ve given the code for the function as an appendix at the end of this post.

Let’s reassure ourselves that the function gives the same results for mechanic

# --- test the function on mechanic ---------------
trainRawDF %>%
  mutate( mechanic = str_replace_all(mechanic, "none", "")) %>%
  mutate( log_rating = log10(geek_rating-5.5) ) %>%
  select_indicators(mechanic, log_rating) %>% 
  print() -> mecDF

## # A tibble: 45 x 5
##    term                          count  p_value mWithout  mWith
##    <chr>                         <int>    <dbl>    <dbl>  <dbl>
##  1 Hex-and-Counter                 317 5.14e-33   -0.341 -0.536
##  2 Variable Player Powers          646 3.69e-21   -0.386 -0.241
##  3 Card Drafting                   415 2.04e-16   -0.377 -0.225
##  4 Area Control / Area Influence   446 1.35e-15   -0.377 -0.238
##  5 Hand Management                 963 1.10e-14   -0.386 -0.287
##  6 Chit-Pull System                 57 3.38e-12   -0.355 -0.582
##  7 Worker Placement                244 1.39e-11   -0.370 -0.207
##  8 Deck / Pool Building            209 1.16e- 9   -0.368 -0.221
##  9 Grid Movement                   224 3.16e- 8   -0.368 -0.231
## 10 Action Point Allowance System   287 1.29e- 7   -0.368 -0.256
## # ... with 35 more rows

The results tally with what we had before, so now we can do the same for categories by first uniting all the categories into a single column.

# --- categorisations -----------------------------
trainRawDF %>%
  unite( "category", category1:category12, sep=" , ", 
         remove=TRUE, na.rm=TRUE) %>%
  mutate( log_rating = log10(geek_rating-5.5) ) %>%
  select_indicators(category, log_rating) %>% 
  print() -> catDF

## # A tibble: 64 x 5
##    term                     count  p_value mWithout  mWith
##    <chr>                    <int>    <dbl>    <dbl>  <dbl>
##  1 Economic                   395 5.88e-15   -0.376 -0.226
##  2 Wargame                    635 1.44e-13   -0.341 -0.442
##  3 World War I                265 1.23e-10   -0.350 -0.466
##  4 City Building              171 1.74e- 9   -0.367 -0.201
##  5 Fighting                   380 2.33e- 9   -0.372 -0.255
##  6 World War II               221 1.04e- 8   -0.352 -0.462
##  7 Children's Game            105 7.08e- 7   -0.355 -0.494
##  8 Civilization               115 1.99e- 6   -0.364 -0.197
##  9 Industry / Manufacturing    90 2.05e- 6   -0.364 -0.181
## 10 Renaissance                 89 3.71e- 6   -0.364 -0.184
## # ... with 54 more rows
…
Only a slight improvement in the RMSE of the validation sample to 0.173 and the interactions need over 50 degrees of freedom to reduce the deviance by 4. They really are not worth it.

Whether or you go beyond this GAM model depends on your aims. In the real world, small gains in the precision of the predictions are likely to be less important than the development of understanding of the structure of the data, but these data were presented for a competition, so this is not the real world.

Submission

I opt to use the GAM with selected features and no interactions. So let’s prepare a submission. I’ll fit the GAM to the full set of clean training data and then predict for the test data.

Here is the format of the sample submission that we need to copy.

read_csv( file.path(home, "data/rawData/sample_submission.csv") ) %>%
  print()

## # A tibble: 1,500 x 2
##    game_id geek_rating
##      <dbl>       <dbl>
##  1  174430        6.09
##  2  182028        6.09
##  3   12333        6.09
##  4  180263        6.09
##  5   84876        6.09
##  6  173346        6.09
##  7  115746        6.09
##  8  102794        6.09
##  9   96848        6.09
## 10  183394        6.09
## # ... with 1,490 more rows
…
# --- predict and write to csv ---------------------------------------
testDF %>% 
  mutate( .fitted = predict(mod, newdata=. ) ) %>%
  mutate( geek_rating = 5.5 + 10^.fitted ) %>%
  select( game_id, geek_rating) %>%
  print() %>%
  write_csv( file.path(home, "temp/submission1.csv")  )

## # A tibble: 1,500 x 2
##    game_id geek_rating
##      <dbl>       <dbl>
##  1  174430        7.86
##  2  182028        8.30
##  3   12333        7.97
##  4  180263        7.80
##  5   84876        7.42
##  6  173346        7.79
##  7  115746        7.28
##  8  102794        7.80
##  9   96848        7.85
## 10  183394        7.43
## # ... with 1,490 more rows
…
