…
# --- gelman statistic Rhat --------------------------------
gd <- gelman.diag(mc)

# --- Rhat in descending order
gd$psrf %>%
  as_tibble() %>%
  janitor::clean_names("lower_camel") %>%
  mutate( observation = paste0("V", 1:100)) %>%
  select( observation, everything() ) %>%
  arrange( desc(pointEst) )

## # A tibble: 100 × 3
##    observation pointEst upperCI
##    <chr>          <dbl>   <dbl>
##  1 V88             1.27    1.73
##  2 V25             1.14    1.41
##  3 V81             1.11    1.33
##  4 V48             1.11    1.32
##  5 V100            1.10    1.31
##  6 V31             1.10    1.30
##  7 V95             1.09    1.30
##  8 V96             1.09    1.28
##  9 V42             1.09    1.27
## 10 V80             1.08    1.24
## # … with 90 more rows
…
